{
  "data": [
    {
      "category": "3.10",
      "date": "2024-09",
      "downloads": 218
    },
    {
      "category": "3.10",
      "date": "2024-10",
      "downloads": 242
    },
    {
      "category": "3.10",
      "date": "2024-11",
      "downloads": 242
    },
    {
      "category": "3.10",
      "date": "2024-12",
      "downloads": 252
    },
    {
      "category": "3.10",
      "date": "2025-01",
      "downloads": 248
    },
    {
      "category": "3.10",
      "date": "2025-02",
      "downloads": 218
    },
    {
      "category": "3.10",
      "date": "2025-03",
      "downloads": 49
    },
    {
      "category": "3.11",
      "date": "2024-09",
      "downloads": 216
    },
    {
      "category": "3.11",
      "date": "2024-10",
      "downloads": 242
    },
    {
      "category": "3.11",
      "date": "2024-11",
      "downloads": 240
    },
    {
      "category": "3.11",
      "date": "2024-12",
      "downloads": 253
    },
    {
      "category": "3.11",
      "date": "2025-01",
      "downloads": 250
    },
    {
      "category": "3.11",
      "date": "2025-02",
      "downloads": 216
    },
    {
      "category": "3.11",
      "date": "2025-03",
      "downloads": 48
    },
    {
      "category": "3.12",
      "date": "2024-09",
      "downloads": 216
    },
    {
      "category": "3.12",
      "date": "2024-10",
      "downloads": 240
    },
    {
      "category": "3.12",
      "date": "2024-11",
      "downloads": 240
    },
    {
      "category": "3.12",
      "date": "2024-12",
      "downloads": 250
    },
    {
      "category": "3.12",
      "date": "2025-01",
      "downloads": 248
    },
    {
      "category": "3.12",
      "date": "2025-02",
      "downloads": 216
    },
    {
      "category": "3.12",
      "date": "2025-03",
      "downloads": 48
    },
    {
      "category": "3.9",
      "date": "2024-10",
      "downloads": 4
    },
    {
      "category": "3.9",
      "date": "2025-03",
      "downloads": 2
    },
    {
      "category": "null",
      "date": "2024-09",
      "downloads": 31
    },
    {
      "category": "null",
      "date": "2024-10",
      "downloads": 106
    },
    {
      "category": "null",
      "date": "2024-11",
      "downloads": 46
    },
    {
      "category": "null",
      "date": "2024-12",
      "downloads": 41
    },
    {
      "category": "null",
      "date": "2025-01",
      "downloads": 51
    },
    {
      "category": "null",
      "date": "2025-02",
      "downloads": 52
    },
    {
      "category": "null",
      "date": "2025-03",
      "downloads": 13
    }
  ],
  "package": "edustaa",
  "type": "python_minor_downloads"
}
